   0.0000000000000000        4.9796398490319733E-003   5.3467725780962742E-006
  0.32000000000000001        1.1994037401133813E-002   8.5587437761383538E-006
  0.64000000000000001        1.3871752445171318E-002   9.9600648172190286E-006
  0.95999999999999996        1.3100005434332800E-002   1.0693197693257827E-005
   1.2800000000000000        1.1136892814462743E-002   1.1380074777303876E-005
   1.6000000000000001        8.3578704257144740E-003   1.2324313454758115E-005
   1.9199999999999999        5.0060505021761563E-003   1.3743226111065711E-005
   2.2400000000000002        1.3229561562713103E-003   1.5797877971557646E-005
   2.5600000000000001       -2.5443703372437371E-003   1.8524004463406794E-005
   2.8800000000000003       -6.3968427667766706E-003   2.1933100107922113E-005
   3.2000000000000002       -1.0030772417319981E-002   2.5805330178414003E-005
   3.5200000000000005       -1.3440695198349898E-002   3.0183822506915254E-005
   3.8400000000000003       -1.6532243274099859E-002   3.4784804661240069E-005
   4.1600000000000001       -1.9203371599191540E-002   3.9556364256770362E-005
   4.4800000000000004       -2.1519268930025481E-002   4.4147526633347482E-005
   4.7999999999999998       -2.3455359725505782E-002   4.8711448007739537E-005
   5.1200000000000001       -2.5169169442342758E-002   5.3086876423943022E-005
   5.4399999999999995       -2.6526816827563041E-002   5.7100478489110027E-005
   5.7599999999999998       -2.7521868151286311E-002   6.0631240098154706E-005
   6.0799999999999992       -2.8342283717762137E-002   6.3578498626833894E-005
   6.3999999999999995       -2.8948616136437080E-002   6.6491404708425637E-005
   6.7199999999999989       -2.9369716875901269E-002   6.8412464065399195E-005
   7.0399999999999991       -2.9757249331426972E-002   7.0520998033799019E-005
   7.3599999999999985       -2.9765342941601668E-002   7.1162441714399331E-005
   7.6799999999999988       -2.9852100357875343E-002   7.2080251916255801E-005
   7.9999999999999982       -2.9959833093393371E-002   7.2775405888269792E-005
   8.3199999999999985       -2.9884366115932062E-002   7.3199673294073979E-005
   8.6399999999999988       -2.9701361549385113E-002   7.2967822168092079E-005
   8.9599999999999991       -2.9536628444145743E-002   7.2485042500595038E-005
   9.2799999999999994       -2.9435975643720236E-002   7.2222246651523791E-005
   9.5999999999999996       -2.9061448988278372E-002   7.0901999920556827E-005
   9.9199999999999999       -2.8624923056405120E-002   6.9759542955735853E-005
   10.240000000000000       -2.8476840112860811E-002   6.8602417329283400E-005
   10.560000000000000       -2.8223526597562842E-002   6.7781219472112081E-005
   10.880000000000001       -2.7796375126481178E-002   6.5725088515950143E-005
   11.200000000000001       -2.7421766945522320E-002   6.4776186973855484E-005
   11.520000000000001       -2.7099804010107760E-002   6.2877963232172709E-005
   11.840000000000002       -2.6746234882867488E-002   6.1584472016347380E-005
   12.160000000000002       -2.6369790613273172E-002   6.0062109275484652E-005
   12.480000000000002       -2.5913721427051232E-002   5.8084569970782826E-005
   12.800000000000002       -2.5654865514463252E-002   5.6811407373133811E-005
   13.120000000000003       -2.5290319698029286E-002   5.5230715912033511E-005
   13.440000000000003       -2.4918674061134467E-002   5.3701561140264578E-005
   13.760000000000003       -2.4651455101280542E-002   5.2544259210974717E-005
   14.080000000000004       -2.4214435309449986E-002   5.0581767142756901E-005
   14.400000000000004       -2.3836272783301006E-002   4.9223386846953538E-005
   14.720000000000004       -2.3509630624551896E-002   4.7858384806236376E-005
   15.040000000000004       -2.3235894664215440E-002   4.6620152737210836E-005
   15.360000000000005       -2.2789616468450208E-002   4.4880153851654192E-005
   15.680000000000005       -2.2583747049296679E-002   4.3780327279763651E-005
   16.000000000000004       -2.2273603792260281E-002   4.2659562125027040E-005
   16.320000000000004       -2.1955331644379197E-002   4.1451205103997053E-005
   16.640000000000004       -2.1672670282606790E-002   4.0674246741717678E-005
   16.960000000000004       -2.1389441937551261E-002   3.9134147289857098E-005
   17.280000000000005       -2.1034078613491609E-002   3.7847172182832078E-005
   17.600000000000005       -2.0803664152569467E-002   3.7168437954264150E-005
   17.920000000000005       -2.0416429651291326E-002   3.5956014459170250E-005
   18.240000000000006       -2.0213767662199636E-002   3.5290754742005400E-005
   18.560000000000006       -1.9956064230422128E-002   3.4133375145781268E-005
   18.880000000000006       -1.9717590595640416E-002   3.3257057075027196E-005
   19.200000000000006       -1.9500801937332342E-002   3.2520887107719680E-005
   19.520000000000007       -1.9214923781166675E-002   3.1559802617178395E-005
   19.840000000000007       -1.8963873365355374E-002   3.0511066977894178E-005
   20.160000000000007       -1.8737731879207215E-002   3.0028993169121066E-005
   20.480000000000008       -1.8545794637228163E-002   2.9286883385811526E-005
   20.800000000000008       -1.8243917195410582E-002   2.8267440675280574E-005
   21.120000000000008       -1.8052682271712389E-002   2.7737976909089148E-005
   21.440000000000008       -1.7790826331505891E-002   2.7001517151942083E-005
   21.760000000000009       -1.7592194320891319E-002   2.6283794212198441E-005
   22.080000000000009       -1.7413260620372163E-002   2.5753074526781026E-005
   22.400000000000009       -1.7209398753463515E-002   2.5112464402807059E-005
   22.720000000000010       -1.7015397997397822E-002   2.4453246724078625E-005
   23.040000000000010       -1.6768426085334132E-002   2.3820507804837783E-005
   23.360000000000010       -1.6590737696044917E-002   2.3295730948872938E-005
   23.680000000000010       -1.6359152136396545E-002   2.2660013628232935E-005
   24.000000000000011       -1.6149073732670226E-002   2.2064562218891475E-005
   24.320000000000011       -1.5982938045317866E-002   2.1667598608397173E-005
   24.640000000000011       -1.5761178574061042E-002   2.1063341152448655E-005
   24.960000000000012       -1.5612108785403662E-002   2.0612170488641466E-005
   25.280000000000012       -1.5452570379689190E-002   2.0226608267409185E-005
   25.600000000000012       -1.5296780135602428E-002   1.9746010887034042E-005
   25.920000000000012       -1.5103201129085900E-002   1.9278625246568669E-005
   26.240000000000013       -1.4925255634932419E-002   1.8824202426773563E-005
   26.560000000000013       -1.4733187389626186E-002   1.8295235807933256E-005
   26.880000000000013       -1.4614466737739692E-002   1.8081564255413164E-005
   27.200000000000014       -1.4396898204292703E-002   1.7497387516367030E-005
   27.520000000000014       -1.4255871655826778E-002   1.7105825594663401E-005
   27.840000000000014       -1.4112963209400453E-002   1.6844013888336075E-005
   28.160000000000014       -1.3925917265943773E-002   1.6314799241521032E-005
   28.480000000000015       -1.3745510322931500E-002   1.5968091983584751E-005
   28.800000000000015       -1.3581220381486975E-002   1.5688713145319402E-005
   29.120000000000015       -1.3404386330909970E-002   1.5281343853511817E-005
   29.440000000000015       -1.3250683704636770E-002   1.4964142993780099E-005
   29.760000000000016       -1.3052166551441872E-002   1.4581786730007961E-005
   30.080000000000016       -1.2877937829344186E-002   1.4258458152970107E-005
   30.400000000000016       -1.2646063928337663E-002   1.3782189372433722E-005
   30.720000000000017       -1.2398769661963032E-002   1.3323732569063859E-005
   31.040000000000017       -1.2067170483197616E-002   1.2789007368122177E-005
   31.360000000000017       -1.1582889890714354E-002   1.2035229540394102E-005
   31.680000000000017       -5.5790793731914819E-003   7.7378008861408267E-006
