 -0.14289347496541069       0.76406762555560337        8.5900252435204463E-004
 -0.14146454021575658       0.77171191328327438        8.9492429929901706E-004
 -0.14003560546610247       0.75293046102828431        8.9489153664951777E-004
 -0.13860667071644836       0.73578674442604164        8.9289176633214242E-004
 -0.13717773596679425       0.71644290902770236        8.8573533342374252E-004
 -0.13574880121714014       0.69896215824744423        8.8223465971112001E-004
 -0.13431986646748603       0.68236088147291174        8.7762560081749931E-004
 -0.13289093171783192       0.66665104099066230        8.7259182392733601E-004
 -0.13146199696817781       0.65314292570635257        8.7009676639240928E-004
 -0.13003306221852370       0.63740153812673528        8.6637224427777988E-004
 -0.12860412746886959       0.62311791380981874        8.6402379655111901E-004
 -0.12717519271921549       0.61129707797540922        8.6346836964097575E-004
 -0.12574625796956138       0.59787936019410970        8.6076720635076343E-004
 -0.12431732321990727       0.58711913628360546        8.6205737316005153E-004
 -0.12288838847025316       0.57456511677960787        8.6200774743599030E-004
 -0.12145945372059905       0.56412887784691401        8.6439454267099678E-004
 -0.12003051897094494       0.55277017189544664        8.6655533099702360E-004
 -0.11860158422129083       0.54336860244005691        8.6910512461656436E-004
 -0.11717264947163672       0.53174031811505640        8.7301007270789647E-004
 -0.11574371472198261       0.52241340081845022        8.7783898230782594E-004
 -0.11431477997232850       0.51108406197747258        8.8295315364655697E-004
 -0.11288584522267439       0.50014679561424780        8.8979187398972935E-004
 -0.11145691047302028       0.49173360946146050        8.9764860054146662E-004
 -0.11002797572336617       0.48249836413952985        9.0551713219022795E-004
 -0.10859904097371206       0.47206425808757996        9.1353057149787481E-004
 -0.10717010622405795       0.46165167434345744        9.2300502482466074E-004
 -0.10574117147440384       0.45127092616128739        9.3311668967406862E-004
 -0.10431223672474974       0.43988173687540005        9.4441405534724857E-004
 -0.10288330197509563       0.42987694826823264        9.5831280763363370E-004
 -0.10145436722544152       0.42099690785099342        9.7315438947785844E-004
 -0.10002543247578741       0.40819584465989567        9.8734669049230380E-004
  -9.8596497726133298E-002  0.39791780536469684        1.0026985866699069E-003
  -9.7167562976479188E-002  0.38629703981566682        1.0198185818639620E-003
  -9.5738628226825079E-002  0.37388800376413200        1.0393420476416065E-003
  -9.4309693477170969E-002  0.36217303300325582        1.0607067513614399E-003
  -9.2880758727516860E-002  0.34886122016020715        1.0814359661211143E-003
  -9.1451823977862751E-002  0.33576598042098899        1.1073874203207967E-003
  -9.0022889228208641E-002  0.32276477760416666        1.1320607539571765E-003
  -8.8593954478554532E-002  0.30994448596909274        1.1599576718675957E-003
  -8.7165019728900422E-002  0.29364862661838564        1.1898681170994482E-003
  -8.5736084979246313E-002  0.27966266369639081        1.2215418427247544E-003
  -8.4307150229592204E-002  0.26208091811633938        1.2554930100491934E-003
  -8.2878215479938094E-002  0.24709636148601133        1.2932893457127507E-003
  -8.1449280730283985E-002  0.22889193018468595        1.3332318855586822E-003
  -8.0020345980629876E-002  0.21205395335857102        1.3730299246611964E-003
  -7.8591411230975766E-002  0.19132861214145125        1.4231580228633871E-003
  -7.7162476481321657E-002  0.16931667883117207        1.4680578205338395E-003
  -7.5733541731667547E-002  0.14868408598230873        1.5212237973726821E-003
  -7.4304606982013438E-002  0.12616151937175160        1.5780897721152365E-003
  -7.2875672232359329E-002  0.10173554049390993        1.6375330915563533E-003
  -7.1446737482705219E-002   7.6918895994632946E-002   1.7002613009903379E-003
  -7.0017802733051110E-002   4.9397982394708356E-002   1.7715102105316722E-003
  -6.8588867983397001E-002   1.8678240516121658E-002   1.8479034729915864E-003
  -6.7159933233742891E-002  -9.0976741245594461E-003   1.9244948577171197E-003
  -6.5730998484088782E-002  -3.9410919401661165E-002   2.0141921958386358E-003
  -6.4302063734434672E-002  -7.8625230523311385E-002   2.1043677594566063E-003
  -6.2873128984780563E-002 -0.11770207673109458        2.2064535620648874E-003
  -6.1444194235126461E-002 -0.15759265391253838        2.3081492673775392E-003
  -6.0015259485472351E-002 -0.19586205014689181        2.4200119719896564E-003
  -5.8586324735818249E-002 -0.24362809502321747        2.5451942791148196E-003
  -5.7157389986164139E-002 -0.28962594798593277        2.6734166216617642E-003
  -5.5728455236510037E-002 -0.34176477141202155        2.8049735404659685E-003
  -5.4299520486855928E-002 -0.39748607592110824        2.9649270952744485E-003
  -5.2870585737201825E-002 -0.45899842650967748        3.1378212815045170E-003
  -5.1441650987547716E-002 -0.52765282787499856        3.3156641322717984E-003
  -5.0012716237893613E-002 -0.59220528651934878        3.4799868728427638E-003
  -4.8583781488239504E-002 -0.67668024438238561        3.7145330976746348E-003
  -4.7154846738585401E-002 -0.75491772104310173        3.9307539343916079E-003
  -4.5725911988931292E-002 -0.84147623889760925        4.1554683781892185E-003
  -4.4296977239277190E-002 -0.95255995606321953        4.4267473753839348E-003
  -4.2868042489623080E-002  -1.0467299315606293        4.7074481219214013E-003
  -4.1439107739968978E-002  -1.1557699261195629        4.9920119687529678E-003
  -4.0010172990314868E-002  -1.2947579544199512        5.3623572012740312E-003
  -3.8581238240660766E-002  -1.4343806357214330        5.6883248798752844E-003
  -3.7152303491006657E-002  -1.5811806464489104        6.0807413851206764E-003
  -3.5723368741352554E-002  -1.7447004703007385        6.5016383017398793E-003
  -3.4294433991698445E-002  -1.9291870803231261        6.9366462119312576E-003
  -3.2865499242044342E-002  -2.1403513395176961        7.4946134178000522E-003
  -3.1436564492390233E-002  -2.3709217438734123        8.0248577669767285E-003
  -3.0007629742736127E-002  -2.6308546300834377        8.6105129729980509E-003
  -2.8578694993082018E-002  -2.9160346159403074        9.2745663216939073E-003
  -2.7149760243427912E-002  -3.2336049852954991        1.0002796982325084E-002
  -2.5720825493773802E-002  -3.5990762666360236        1.0820913183179895E-002
  -2.4291890744119696E-002  -4.0024416991420413        1.1564871962808365E-002
  -2.2862955994465587E-002  -4.4846355596994449        1.2560452215400609E-002
  -2.1434021244811481E-002  -5.0219073402639491        1.3586301870633404E-002
  -2.0005086495157372E-002  -5.6635718570209441        1.4691785537701313E-002
  -1.8576151745503266E-002  -6.4352755652878137        1.5963943950636651E-002
  -1.7147216995849156E-002  -7.2976237338809664        1.7183741482462486E-002
  -1.5718282246195051E-002  -8.4087212876324315        1.8704429797396206E-002
  -1.4289347496540943E-002  -9.7288112886176101        2.0169650155398504E-002
  -1.2860412746886837E-002  -11.388862953579828        2.1850967178236591E-002
  -1.1431477997232729E-002  -13.554244422610202        2.3550057279153030E-002
  -1.0002543247578623E-002  -16.405618462743128        2.5291806496016939E-002
  -8.5736084979245158E-003  -20.330930105092982        2.6811195284492460E-002
  -7.1446737482704099E-003  -26.080085067563147        2.8184779264240161E-002
  -5.7157389986163022E-003  -35.369796122994799        2.9172743659334067E-002
  -4.2868042489621963E-003  -52.560748389502180        2.9288104137858369E-002
  -2.8578694993080882E-003  -95.671341823546499        2.7881791544797821E-002
  -1.4289347496539823E-003  -66.789899569624879        1.3362656187262538E-002
